<?xml version="1.0" encoding="utf-8"?>
<!-- Generator: Adobe Illustrator 15.0.0, SVG Export Plug-In . SVG Version: 6.00 Build 0)  -->
<!DOCTYPE svg PUBLIC "-//W3C//DTD SVG 1.1//EN" "http://www.w3.org/Graphics/SVG/1.1/DTD/svg11.dtd">
<svg version="1.1" id="Layer_2" xmlns="http://www.w3.org/2000/svg" xmlns:xlink="http://www.w3.org/1999/xlink" x="0px" y="0px"
	 width="180px" height="66px" viewBox="0 0 180 66" enable-background="new 0 0 180 66" xml:space="preserve">
<g>
	<g>
		<path fill="#FFFFFF" d="M2.863,17.104c-0.993,0-1.831,0.896-1.831,1.956c0,1.074,0.768,1.914,1.748,1.914
			c1.085,0,1.872-0.805,1.872-1.914C4.652,17.944,3.883,17.104,2.863,17.104z"/>
		<rect x="1.531" y="25.293" fill="#FFFFFF" width="2.623" height="22.971"/>
		<path fill="#FFFFFF" d="M19.597,24.776c-3.866,0-6.436,2.089-7.668,4.209l-0.17-3.692H9.273l0.038,0.703
			c0.083,1.56,0.162,3.036,0.162,4.909v17.359h2.624V34.101c0-0.626,0.119-1.357,0.32-1.96c0.906-2.957,3.607-5.022,6.569-5.022
			c5.258,0,6.042,4.757,6.042,7.594v13.553h2.624V34.523C27.652,25.247,20.942,24.776,19.597,24.776z"/>
		<path fill="#FFFFFF" d="M43.096,24.776c-3.866,0-6.436,2.089-7.669,4.209l-0.169-3.692h-2.485l0.038,0.703
			c0.083,1.56,0.162,3.036,0.162,4.909v17.359h2.623V34.101c0-0.626,0.12-1.357,0.32-1.96c0.906-2.957,3.608-5.022,6.57-5.022
			c5.257,0,6.042,4.757,6.042,7.594v13.553h2.624V34.523C51.151,25.247,44.44,24.776,43.096,24.776z"/>
		<path fill="#FFFFFF" d="M64.903,24.776c-5.238,0-10.875,3.815-10.875,12.191c0,6.956,4.337,11.814,10.546,11.814
			c5.306,0,11.016-3.829,11.016-12.237C75.59,29.505,71.296,24.776,64.903,24.776z M64.715,46.488c-4.57,0-8.017-4.154-8.017-9.662
			c0-4.721,2.553-9.803,8.158-9.803c5.917,0,8.064,5.778,8.064,9.662C72.92,42.273,69.393,46.488,64.715,46.488z"/>
		<path fill="#FFFFFF" d="M88.022,39.429l-0.513,1.303c-0.589,1.497-1.148,2.919-1.639,4.284c-0.591-1.78-1.253-3.568-2.068-5.584
			l-5.314-14.138h-2.844l8.997,22.971h2.255l9.217-22.686l0.115-0.286h-2.799L88.022,39.429z"/>
		<path fill="#FFFFFF" d="M113.002,42.701v-8.789c0-6.063-2.678-9.136-7.961-9.136c-2.371,0-4.874,0.734-6.696,1.962l-0.143,0.096
			l0.877,2.043l0.211-0.155c1.447-1.065,3.406-1.652,5.518-1.652h0.082c3.643,0,5.489,2.176,5.489,6.466v0.355l-0.188,0
			c-8.758,0-13.581,3.011-13.581,8.48c0,3.089,2.139,6.411,6.834,6.411c3.463,0,5.926-1.781,7.165-3.552l0.307,3.034h2.445
			l-0.031-0.234C113.112,46.421,113.002,44.628,113.002,42.701z M102.656,37.283c1.677-0.737,3.995-1.11,6.89-1.11
			c0.28,0,0.559,0.003,0.833,0.009v4.639c0,0.363-0.076,0.802-0.223,1.293c-0.371,1.026-1.936,4.375-6.478,4.375
			c-1.986,0-4.305-1.177-4.305-4.493C99.374,39.825,100.479,38.24,102.656,37.283z"/>
		<path fill="#FFFFFF" d="M126.002,24.776c-2.688,0-5.108,1.733-6.341,4.479l-0.083-3.961h-2.487l0.01,0.216
			c0.096,2.185,0.188,4.508,0.188,6.758v15.997h2.623v-12.66c0-0.741,0.094-1.493,0.185-2.127c0.629-3.721,2.873-6.125,5.717-6.125
			c0.42,0,0.723,0,1.024,0.085l0.264,0.076v-2.613l-0.173-0.028C126.639,24.825,126.303,24.776,126.002,24.776z"/>
		<path fill="#FFFFFF" d="M137.94,24.776c-6.195,0-10.358,4.993-10.358,12.426c0,6.927,4.314,11.58,10.735,11.58
			c4.089,0,6.394-1.037,7.194-1.483l0.147-0.082l-0.686-2.175l-0.214,0.104c-1.347,0.648-3.027,1.249-6.162,1.249
			c-5.273,0-8.324-3.512-8.391-9.644h16.589l0.039-0.155c0.1-0.401,0.1-0.783,0.1-1.414
			C146.935,34.116,146.683,24.776,137.94,24.776z M130.372,34.551c0.453-3.525,2.609-7.527,7.286-7.527
			c1.851,0,3.35,0.568,4.453,1.688c1.808,1.835,2.053,4.559,2.059,5.839H130.372z"/>
	</g>
	<g>
		<path fill="#FFFFFF" d="M90.773,61.086c0.411,0.243,1.11,0.518,1.779,0.518c0.959,0,1.415-0.472,1.415-1.096
			c0-0.64-0.38-0.974-1.354-1.339c-1.337-0.486-1.961-1.218-1.961-2.082c0-1.188,0.974-2.16,2.54-2.16
			c0.745,0,1.399,0.196,1.794,0.455l-0.318,0.959c-0.29-0.168-0.822-0.425-1.506-0.425c-0.791,0-1.218,0.453-1.218,1.003
			c0,0.607,0.427,0.881,1.385,1.261c1.263,0.472,1.932,1.11,1.932,2.206c0,1.308-1.019,2.22-2.738,2.22
			c-0.805,0-1.55-0.213-2.068-0.517L90.773,61.086z"/>
		<path fill="#FFFFFF" d="M98.68,55.093l1.598,4.351c0.182,0.485,0.364,1.064,0.486,1.504h0.03c0.137-0.439,0.288-1.002,0.472-1.534
			l1.46-4.32h1.414l-2.008,5.247c-0.958,2.524-1.612,3.803-2.525,4.607c-0.668,0.563-1.307,0.791-1.641,0.852l-0.335-1.108
			c0.335-0.107,0.774-0.319,1.171-0.655c0.365-0.289,0.805-0.807,1.125-1.49c0.062-0.136,0.106-0.243,0.106-0.318
			c0-0.076-0.03-0.184-0.106-0.35l-2.706-6.784H98.68z"/>
		<path fill="#FFFFFF" d="M106.298,61.086c0.411,0.243,1.11,0.518,1.779,0.518c0.958,0,1.414-0.472,1.414-1.096
			c0-0.64-0.38-0.974-1.354-1.339c-1.338-0.486-1.962-1.218-1.962-2.082c0-1.188,0.973-2.16,2.54-2.16
			c0.746,0,1.399,0.196,1.795,0.455l-0.319,0.959c-0.289-0.168-0.821-0.425-1.506-0.425c-0.791,0-1.217,0.453-1.217,1.003
			c0,0.607,0.426,0.881,1.384,1.261c1.263,0.472,1.932,1.11,1.932,2.206c0,1.308-1.02,2.22-2.737,2.22
			c-0.807,0-1.551-0.213-2.068-0.517L106.298,61.086z"/>
		<path fill="#FFFFFF" d="M115.33,53.329v1.764h1.916v1.02h-1.916v3.954c0,0.912,0.259,1.43,1.004,1.43
			c0.364,0,0.578-0.031,0.775-0.092l0.062,1.019c-0.259,0.092-0.669,0.183-1.187,0.183c-0.623,0-1.126-0.213-1.445-0.563
			c-0.365-0.41-0.517-1.064-0.517-1.932v-3.999h-1.141v-1.02h1.141v-1.352L115.33,53.329z"/>
		<path fill="#FFFFFF" d="M120.637,59.019c0.03,1.793,1.171,2.539,2.51,2.539c0.958,0,1.551-0.168,2.038-0.382l0.243,0.96
			c-0.472,0.212-1.293,0.47-2.464,0.47c-2.25,0-3.619-1.505-3.619-3.709c0-2.221,1.322-3.97,3.468-3.97
			c2.401,0,3.025,2.113,3.025,3.467c0,0.274-0.015,0.472-0.045,0.625H120.637z M124.546,58.059c0.015-0.851-0.351-2.175-1.841-2.175
			c-1.368,0-1.947,1.248-2.053,2.175H124.546z"/>
		<path fill="#FFFFFF" d="M128.711,57.087c0-0.778-0.03-1.386-0.062-1.994h1.172l0.061,1.188h0.047
			c0.409-0.7,1.094-1.354,2.325-1.354c0.989,0,1.749,0.607,2.069,1.475h0.03c0.229-0.425,0.532-0.73,0.836-0.959
			c0.44-0.334,0.913-0.516,1.613-0.516c0.987,0,2.432,0.638,2.432,3.192v4.334h-1.308v-4.166c0-1.429-0.531-2.268-1.596-2.268
			c-0.776,0-1.354,0.564-1.598,1.203c-0.061,0.198-0.106,0.441-0.106,0.668v4.563h-1.308v-4.425c0-1.17-0.518-2.009-1.537-2.009
			c-0.82,0-1.444,0.671-1.657,1.341c-0.075,0.196-0.106,0.425-0.106,0.651v4.441h-1.308V57.087z"/>
		<path fill="#FFFFFF" d="M142.427,61.086c0.41,0.243,1.11,0.518,1.779,0.518c0.959,0,1.414-0.472,1.414-1.096
			c0-0.64-0.38-0.974-1.353-1.339c-1.339-0.486-1.963-1.218-1.963-2.082c0-1.188,0.974-2.16,2.539-2.16
			c0.746,0,1.399,0.196,1.796,0.455l-0.319,0.959c-0.288-0.168-0.823-0.425-1.505-0.425c-0.793,0-1.218,0.453-1.218,1.003
			c0,0.607,0.425,0.881,1.384,1.261c1.262,0.472,1.932,1.11,1.932,2.206c0,1.308-1.02,2.22-2.737,2.22
			c-0.807,0-1.553-0.213-2.068-0.517L142.427,61.086z"/>
	</g>
	<path fill="#FFFFFF" d="M160.069,21.796c-8.299,1.662-16.373-3.716-18.036-12.017c-0.665-3.319-0.189-6.594,1.135-9.446
		c-3.182,3.481-4.734,8.371-3.735,13.35c1.662,8.299,9.737,13.68,18.036,12.017c4.982-0.998,8.895-4.312,10.881-8.591
		C166.228,19.43,163.388,21.131,160.069,21.796z"/>
	<path fill="#FFFFFF" d="M160.875,13.408c5.549-3.106,12.565-1.127,15.673,4.422c1.242,2.219,1.656,4.671,1.37,7.017
		c1.472-3.225,1.45-7.078-0.413-10.408c-3.107-5.548-10.124-7.529-15.673-4.422c-3.331,1.865-5.362,5.138-5.795,8.656
		C157.018,16.523,158.654,14.65,160.875,13.408z"/>
</g>
</svg>
